DS 202 - cleaning data: messy 3
…
First: what are the key variables for the new dataset?

Second: for the key variable(s) use summarize to find the first time a movie shows up in the box office and find the related number of weeks. 

Key variables

Does Movie uniquely describe a movie?

movies <- box %>% select(Movie, Distributor) %>% unique()

Does that make a movie unique?

movies %>% count(Movie) %>% arrange(desc(n))

## # A tibble: 3,182 x 2
##    Movie                    n
##    <chr>                <int>
##  1 Beauty and the Beast     2
##  2 Breathe                  2
##  3 Concussion               2
##  4 Entertainment            2
##  5 Girlhood                 2
##  6 Gold                     2
##  7 Leviathan                2
##  8 Mama Africa              2
##  9 Phantom                  2
## 10 Reset                    2
## # ... with 3,172 more rows
…
Looking into inconsistencies

movies %>% group_by(Movie) %>% mutate(n = n()) %>% arrange(desc(n))

## # A tibble: 3,201 x 5
## # Groups:   Movie [3,182]
##    Movie                Distributor          firstDate  firstWeek     n
##    <chr>                <chr>                <date>         <dbl> <int>
##  1 Beauty and the Beast Lopert Pictures Cor… 2016-02-12      1.00     2
##  2 Beauty and the Beast Walt Disney          2017-03-17      1.00     2
##  3 Breathe              Bleecker Street      2017-10-13      1.00     2
##  4 Breathe              Film Movement        2015-09-11      1.00     2
##  5 Concussion           Radius               2013-10-04      1.00     2
##  6 Concussion           Sony Pictures        2015-12-25      1.00     2
##  7 Entertainment        B4U Movies           2014-08-08      1.00     2
##  8 Entertainment        Magnolia Pictures    2015-11-13      1.00     2
##  9 Girlhood             ""                   2015-04-10    598        2
## 10 Girlhood             Strand               2015-01-30      1.00     2
## # ... with 3,191 more rows
…
